Analyse de Données - 3 Explorez votre premier jeu de données
…
airlines : traduction entre les codes IATA à 2 lettres des compagnies aériennes et leur nom complet (il y en a 16 au total)

planes : informations constructeurs pour chacun des 3322 avions utilisés en 2013

weather : données météorologiques heure par heure (environ 8705 observations) pour chacun des 3 aéroports de New York

airports : noms et localisations géographiques des aéroports desservis (1458 aéroports)

3.2 Le data frame flights

Nous allons commencer par explorer le jeu de données flights qui est inclus avec le package nycflights13 afin de nous faire une idée de sa structure. Dans votre script, tapez la commande suivante et exécutez la dans la console (selon les réglages de RStudio et la largeur de votre console, l’affichage peut varier légèrement) :

flights

# A tibble: 336,776 × 19
    year month   day dep_time sched_dep_time dep_delay arr_time sched_arr_time
   <int> <int> <int>    <int>          <int>     <dbl>    <int>          <int>
 1  2013     1     1      517            515         2      830            819
 2  2013     1     1      533            529         4      850            830
 3  2013     1     1      542            540         2      923            850
 4  2013     1     1      544            545        -1     1004           1022
 5  2013     1     1      554            600        -6      812            837
 6  2013     1     1      554            558        -4      740            728
 7  2013     1     1      555            600        -5      913            854
 8  2013     1     1      557            600        -3      709            723
 9  2013     1     1      557            600        -3      838            846
10  2013     1     1      558            600        -2      753            745
# ℹ 336,766 more rows
# ℹ 11 more variables: arr_delay <dbl>, carrier <chr>, flight <int>,
#   tailnum <chr>, origin <chr>, dest <chr>, air_time <dbl>, distance <dbl>,
#   hour <dbl>, minute <dbl>, time_hour <dttm>
…
