Analyse de Données - 4 (Ar)ranger des données avec tidyr
…
Figure 4.6: Les bons réglages pour ce fichier.

Notez qu’à chaque fois que vous modifiez une valeur dans la zone Import Options, 2 choses se produisent simultanément :

La zone Data Preview est mise à jour. Cela permet de s’assurer que les changements effectués ont bien les effets escomptés.

La zone Code Preview est mise à jour. Cela permet de copier-coller dans un script les commandes permettant d’importer correctement les données. Ici, voilà le code que nous devons ajouter à notre script :

dauphin <- read_excel("data/dauphin.xls", na = "*", skip = 9)

La commande library(readxl) est inutile puisque nous l’avons déjà saisie au début de ce chapitre. Nous disposons maintenant d’un nouvel objet nommé dauphin. Il est stocké sous la forme d’un tibble :

dauphin

# A tibble: 93 × 9
   `N°`      Sexe  `Statut reproducteur` `Taille en cm` `Age en années`
   <chr>     <chr> <chr>                          <dbl>           <dbl>
 1 Numéro 1  f     imm                              315               3
 2 Numéro 2  f     imm                              357               4
 3 Numéro 3  f     pnl                              439              34
 4 Numéro 4  f     imm                              316               4
 5 Numéro 5  f     l                                435              26
 6 Numéro 6  f     pnl                              388               6
 7 Numéro 7  f     mat                              410              NA
 8 Numéro 8  m     imm                              355              NA
 9 Numéro 9  m     imm                              222              NA
10 Numéro 10 m     imm                              412               9
# ℹ 83 more rows
# ℹ 4 more variables: `Cd (mg.kg-1)` <dbl>, `Cu (mg.kg-1)` <dbl>,
#   `Hg (mg.kg-1)` <dbl>, Organe <chr>

Notez toutefois que les noms de colonnes complexes sont toujours présents. Avec de tels noms, les variables ne seront pas faciles à manipuler et les risques d’erreurs de frappes seront nombreux. Nous avons tout intérêt à les modifier à l’aide de la fonction names() :

names(dauphin) <- c("ID", "Sexe", "Statut", "Taille",
                    "Age", "Cd", "Cu", "Hg", "Organe")
dauphin

# A tibble: 93 × 9
   ID        Sexe  Statut Taille   Age     Cd    Cu    Hg Organe
   <chr>     <chr> <chr>   <dbl> <dbl>  <dbl> <dbl> <dbl> <chr> 
 1 Numéro 1  f     imm       315     3  29.6   3.24 NA    rein  
 2 Numéro 2  f     imm       357     4  55.1   4.42 NA    rein  
 3 Numéro 3  f     pnl       439    34 129.    5.01  9.02 rein  
 4 Numéro 4  f     imm       316     4  71.2   4.33 NA    rein  
 5 Numéro 5  f     l         435    26 192     5.15 NA    rein  
 6 Numéro 6  f     pnl       388     6  NA     4.12  4.53 rein  
 7 Numéro 7  f     mat       410    NA  76     5.1  33.9  foie  
 8 Numéro 8  m     imm       355    NA  74.4   4.72 13.3  foie  
 9 Numéro 9  m     imm       222    NA   0.09  9.5   2.89 foie  
10 Numéro 10 m     imm       412     9  85.6   5.42 NA    rein  
# ℹ 83 more rows
…
Notez que :

C’est le package readr et non plus readxl qui est utilisé.

La fonction read_delim() a remplacé la fonction read_excel(). Il existe beaucoup d’autres fonctions selon le format de vos données (par exemple read_csv() et read_csv2()). Il est inutile de toutes les connaître dans la mesure où généralement, RStudio vous propose automatiquement la plus appropriée.

R indique de quelle façon les colonnes ont été “parsées”, autrement dit, R indique quelles fonctions ont été utilisées pour reconnaître le type des données présentes dans chaque colonne.

Toutes les fonctions permettant d’importer des données n’ont pas nécessairement le même comportement. Ainsi, si l’on compare les objets importés depuis le fichier tableur (dauphin) et depuis le fichier texte brut (dauphin2), le type de certaines variables peut être différent :

dauphin

# A tibble: 93 × 9
   ID        Sexe  Statut Taille   Age     Cd    Cu    Hg Organe
   <chr>     <chr> <chr>   <dbl> <dbl>  <dbl> <dbl> <dbl> <chr> 
 1 Numéro 1  f     imm       315     3  29.6   3.24 NA    rein  
 2 Numéro 2  f     imm       357     4  55.1   4.42 NA    rein  
 3 Numéro 3  f     pnl       439    34 129.    5.01  9.02 rein  
 4 Numéro 4  f     imm       316     4  71.2   4.33 NA    rein  
 5 Numéro 5  f     l         435    26 192     5.15 NA    rein  
 6 Numéro 6  f     pnl       388     6  NA     4.12  4.53 rein  
 7 Numéro 7  f     mat       410    NA  76     5.1  33.9  foie  
 8 Numéro 8  m     imm       355    NA  74.4   4.72 13.3  foie  
 9 Numéro 9  m     imm       222    NA   0.09  9.5   2.89 foie  
10 Numéro 10 m     imm       412     9  85.6   5.42 NA    rein  
# ℹ 83 more rows

dauphin2

# A tibble: 93 × 9
      Id Sexe  Statut Taille   Age     Cd    Cu    Hg Organe
   <dbl> <chr> <chr>   <dbl> <dbl>  <dbl> <dbl> <dbl> <chr> 
 1     1 f     imm       315     3  29.6   3.24 NA    rein  
 2     2 f     imm       357     4  55.1   4.42 NA    rein  
 3     3 f     pnl       439    34 129.    5.01  9.02 rein  
 4     4 f     imm       316     4  71.2   4.33 NA    rein  
 5     5 f     l         435    26 192     5.15 NA    rein  
 6     6 f     pnl       388     6  NA     4.12  4.53 rein  
 7     7 f     mat       410    NA  76     5.1  33.9  foie  
 8     8 m     imm       355    NA  74.4   4.72 13.3  foie  
 9     9 m     imm       222    NA   0.09  9.5   2.89 foie  
10    10 m     imm       412     9  85.6   5.42 NA    rein  
# ℹ 83 more rows
…
Puisque la fonction read.table() importe les données sous la forme d’un data.frame, il est nécessaire de transformer le tableau obtenu en tibble grâce à la fonction as_tibble() afin de bénéficier de tous les avantages de ce format d’objet.

dauph <- as_tibble(dauph)
dauph

# A tibble: 93 × 9
      Id Sexe  Statut Taille   Age     Cd    Cu    Hg Organe
   <int> <chr> <chr>   <int> <int>  <dbl> <dbl> <dbl> <chr> 
 1     1 f     imm       315     3  29.6   3.24 NA    rein  
 2     2 f     imm       357     4  55.1   4.42 NA    rein  
 3     3 f     pnl       439    34 129.    5.01  9.02 rein  
 4     4 f     imm       316     4  71.2   4.33 NA    rein  
 5     5 f     l         435    26 192     5.15 NA    rein  
 6     6 f     pnl       388     6  NA     4.12  4.53 rein  
 7     7 f     mat       410    NA  76     5.1  33.9  foie  
 8     8 m     imm       355    NA  74.4   4.72 13.3  foie  
 9     9 m     imm       222    NA   0.09  9.5   2.89 foie  
10    10 m     imm       412     9  85.6   5.42 NA    rein  
# ℹ 83 more rows
…
