Analyse de Données - 5 (Ar)ranger des données avec tidyr
…
# A tibble: 3 × 4
  country `2011` `2012` `2013`
  <chr>    <dbl>  <dbl>  <dbl>
1 FR        7000   6900   7000
2 DE        5800   6000   6200
3 US       15000  14000  13000

Cette fonction sera donc rarement utilisée puisqu’elle ne permet pas d’obtenir des “tableaux rangés”. Toutefois, elle pourra vous être utile pour présenter des résultats sous forme synthétique. Prenons un exemple avec le jeu de données flights. Imaginons que vous deviez créer un tableau n_vols présentant, pour chacun des 3 aéroports de New York, le nombre de vols affrétés par chaque compagnie aérienne en 2013. Une possibilité serait de taper ceci :

n_vols <- flights %>% 
  group_by(origin, carrier) %>% 
  count()
n_vols

# A tibble: 35 × 3
# Groups:   origin, carrier [35]
   origin carrier     n
   <chr>  <chr>   <int>
 1 EWR    9E       1268
 2 EWR    AA       3487
 3 EWR    AS        714
 4 EWR    B6       6557
 5 EWR    DL       4342
 6 EWR    EV      43939
 7 EWR    MQ       2276
 8 EWR    OO          6
 9 EWR    UA      46087
10 EWR    US       4405
# ℹ 25 more rows
…
Les bons réglages pour ce fichier

Notez qu’à chaque fois que vous modifiez une valeur dans la zone Import Options, 2 choses se produisent simultanément :

La zone Data Preview est mise à jour. Cela permet de s’assurer que les changements effectués ont bien les effets escomptés.

La zone Code Preview est mise à jour. Cela permet de copier-coller dans un script les commandes permettant d’importer correctement les données. Ici, voilà le code que nous devons ajouter à notre script :

dauphin <- read_excel("data/dauphin.xls", na = "*", skip = 9)

La commande library(readxl) est inutile puisque nous l’avons déjà saisie au début de ce chapitre. Nous disposons maintenant d’un nouvel objet nommé dauphin. Il est stocké sous la forme d’un tibble :

dauphin

# A tibble: 93 × 9
   `N°`      Sexe  `Statut reproducteur` `Taille en cm` `Age en années`
   <chr>     <chr> <chr>                          <dbl>           <dbl>
 1 Numéro 1  f     imm                              315               3
 2 Numéro 2  f     imm                              357               4
 3 Numéro 3  f     pnl                              439              34
 4 Numéro 4  f     imm                              316               4
 5 Numéro 5  f     l                                435              26
 6 Numéro 6  f     pnl                              388               6
 7 Numéro 7  f     mat                              410              NA
 8 Numéro 8  m     imm                              355              NA
 9 Numéro 9  m     imm                              222              NA
10 Numéro 10 m     imm                              412               9
# ℹ 83 more rows
# ℹ 4 more variables: `Cd (mg.kg-1)` <dbl>, `Cu (mg.kg-1)` <dbl>,
#   `Hg (mg.kg-1)` <dbl>, Organe <chr>

Notez toutefois que les noms de colonnes complexes sont toujours présents. Avec de tels noms, les variables ne seront pas faciles à manipuler et les risques d’erreurs de frappes seront nombreux. Nous avons tout intérêt à les modifier à l’aide de la fonction names() :

names(dauphin) <- c("ID", "Sexe", "Statut", "Taille",
                    "Age", "Cd", "Cu", "Hg", "Organe")
dauphin

# A tibble: 93 × 9
   ID        Sexe  Statut Taille   Age     Cd    Cu    Hg Organe
   <chr>     <chr> <chr>   <dbl> <dbl>  <dbl> <dbl> <dbl> <chr> 
 1 Numéro 1  f     imm       315     3  29.6   3.24 NA    rein  
 2 Numéro 2  f     imm       357     4  55.1   4.42 NA    rein  
 3 Numéro 3  f     pnl       439    34 129.    5.01  9.02 rein  
 4 Numéro 4  f     imm       316     4  71.2   4.33 NA    rein  
 5 Numéro 5  f     l         435    26 192     5.15 NA    rein  
 6 Numéro 6  f     pnl       388     6  NA     4.12  4.53 rein  
 7 Numéro 7  f     mat       410    NA  76     5.1  33.9  foie  
 8 Numéro 8  m     imm       355    NA  74.4   4.72 13.3  foie  
 9 Numéro 9  m     imm       222    NA   0.09  9.5   2.89 foie  
10 Numéro 10 m     imm       412     9  85.6   5.42 NA    rein  
# ℹ 83 more rows
…
Notez que :

C’est le package readr et non plus readxl qui est utilisé.

La fonction read_delim() a remplacé la fonction read_excel(). Il existe beaucoup d’autres fonctions selon le format de vos données (par exemple read_csv() et read_csv2()). Il est inutile de toutes les connaître dans la mesure où généralement, RStudio vous propose automatiquement la plus appropriée.

R indique de quelle façon les colonnes ont été “parsées”, autrement dit, R indique quelles fonctions ont été utilisées pour reconnaître le type des données présentes dans chaque colonne.

Toutes les fonctions permettant d’importer des données n’ont pas nécessairement le même comportement. Ainsi, si l’on compare les objets importés depuis le fichier tableur (dauphin) et depuis le fichier texte brut (dauphin2), le type de certaines variables peut être différent :

dauphin

# A tibble: 93 × 9
   ID        Sexe  Statut Taille   Age     Cd    Cu    Hg Organe
   <chr>     <chr> <chr>   <dbl> <dbl>  <dbl> <dbl> <dbl> <chr> 
 1 Numéro 1  f     imm       315     3  29.6   3.24 NA    rein  
 2 Numéro 2  f     imm       357     4  55.1   4.42 NA    rein  
 3 Numéro 3  f     pnl       439    34 129.    5.01  9.02 rein  
 4 Numéro 4  f     imm       316     4  71.2   4.33 NA    rein  
 5 Numéro 5  f     l         435    26 192     5.15 NA    rein  
 6 Numéro 6  f     pnl       388     6  NA     4.12  4.53 rein  
 7 Numéro 7  f     mat       410    NA  76     5.1  33.9  foie  
 8 Numéro 8  m     imm       355    NA  74.4   4.72 13.3  foie  
 9 Numéro 9  m     imm       222    NA   0.09  9.5   2.89 foie  
10 Numéro 10 m     imm       412     9  85.6   5.42 NA    rein  
# ℹ 83 more rows

dauphin2

# A tibble: 93 × 9
      Id Sexe  Statut Taille   Age     Cd    Cu    Hg Organe
   <dbl> <chr> <chr>   <dbl> <dbl>  <dbl> <dbl> <dbl> <chr> 
 1     1 f     imm       315     3  29.6   3.24 NA    rein  
 2     2 f     imm       357     4  55.1   4.42 NA    rein  
 3     3 f     pnl       439    34 129.    5.01  9.02 rein  
 4     4 f     imm       316     4  71.2   4.33 NA    rein  
 5     5 f     l         435    26 192     5.15 NA    rein  
 6     6 f     pnl       388     6  NA     4.12  4.53 rein  
 7     7 f     mat       410    NA  76     5.1  33.9  foie  
 8     8 m     imm       355    NA  74.4   4.72 13.3  foie  
 9     9 m     imm       222    NA   0.09  9.5   2.89 foie  
10    10 m     imm       412     9  85.6   5.42 NA    rein  
# ℹ 83 more rows
…
dec : la spécification du symbole utilisé en guise de symbole pour les décimales. Il n’est pas nécessaire de spécifier cet argument lorsque le symbole dans le fichier source est le point. Mais si c’est une virgule (comme c’est souvent le cas dans les pays francophones), il faut alors préciser dec = ",".

header : la première ligne du fichier source contient-elle des noms de variables. Si oui, il faut indiquer header = TRUE.

Ainsi, par exemple, pour le fichier dauphin.csv, on peut taper ceci :

dauph <- read.table("data/dauphin.csv",
                    sep = "\t",
                    dec = ",",
                    header = TRUE)
dauph <- as_tibble(dauph)
dauph

# A tibble: 93 × 9
      Id Sexe  Statut Taille   Age     Cd    Cu    Hg Organe
   <int> <chr> <chr>   <int> <int>  <dbl> <dbl> <dbl> <chr> 
 1     1 f     imm       315     3  29.6   3.24 NA    rein  
 2     2 f     imm       357     4  55.1   4.42 NA    rein  
 3     3 f     pnl       439    34 129.    5.01  9.02 rein  
 4     4 f     imm       316     4  71.2   4.33 NA    rein  
 5     5 f     l         435    26 192     5.15 NA    rein  
 6     6 f     pnl       388     6  NA     4.12  4.53 rein  
 7     7 f     mat       410    NA  76     5.1  33.9  foie  
 8     8 m     imm       355    NA  74.4   4.72 13.3  foie  
 9     9 m     imm       222    NA   0.09  9.5   2.89 foie  
10    10 m     imm       412     9  85.6   5.42 NA    rein  
# ℹ 83 more rows
…
