Analyse de Données - 5 Manipuler des tableaux avec dplyr
…
Dans la fonction filter(), séparer plusieurs conditions par des virgules signifie que seules les lignes qui remplissent toutes les conditions seront retenues. C’est donc l’équivalent du ET logique.

Enfin, pour illustrer l’utilisation de | (le OU logique) et de %in%, imaginons que nous souhaitions extraire les informations des individus de l’espèce Adélie qui vivent soit sur l’île Biscoe, soit sur l’île Dream, et dont le bec mesure moins de 42 mm de longueur :

adel_small <- penguins |> 
  filter(species == "Adelie", 
         island == "Biscoe" | island == "Dream", 
         bill_length_mm < 42)
adel_small

# A tibble: 91 × 8
   species island bill_length_mm bill_depth_mm flipper_length_mm body_mass_g
   <fct>   <fct>           <dbl>         <dbl>             <int>       <int>
 1 Adelie  Biscoe           37.8          18.3               174        3400
 2 Adelie  Biscoe           37.7          18.7               180        3600
 3 Adelie  Biscoe           35.9          19.2               189        3800
 4 Adelie  Biscoe           38.2          18.1               185        3950
 5 Adelie  Biscoe           38.8          17.2               180        3800
 6 Adelie  Biscoe           35.3          18.9               187        3800
 7 Adelie  Biscoe           40.6          18.6               183        3550
 8 Adelie  Biscoe           40.5          17.9               187        3200
 9 Adelie  Biscoe           37.9          18.6               172        3150
10 Adelie  Biscoe           40.5          18.9               180        3950
# ℹ 81 more rows
# ℹ 2 more variables: sex <fct>, year <int>

Examinez ce tableau avec View() pour vérifier que la variable island contient bien uniquement les valeurs Biscoe et Dream correspondant aux 2 îles qui nous intéressent. Nous avons extrait ici les individus des îles Biscoe et Dream, pourtant, il nous a fallu utiliser le OU logique. Car chaque individu n’est issu que d’une unique île, or nous souhaitons récupérer toutes les lignes pour lesquelles l’île est soit Biscoe, soit Dream (l’une ou l’autre). Pour chaque ligne, les deux conditions ne peuvent pas être vraies l’une et l’autre en même temps. En revanche, on retient chaque ligne qui remplit la première condition ou la seconde.

Une autre solution pour obtenir le même tableau est de remplacer l’expression contenant | par une expression contenant %in% :

adel_small2 <- penguins |> 
  filter(species == "Adelie", 
         island %in% c("Biscoe", "Dream"), 
         bill_length_mm < 42)
adel_small2

# A tibble: 91 × 8
   species island bill_length_mm bill_depth_mm flipper_length_mm body_mass_g
   <fct>   <fct>           <dbl>         <dbl>             <int>       <int>
 1 Adelie  Biscoe           37.8          18.3               174        3400
 2 Adelie  Biscoe           37.7          18.7               180        3600
 3 Adelie  Biscoe           35.9          19.2               189        3800
 4 Adelie  Biscoe           38.2          18.1               185        3950
 5 Adelie  Biscoe           38.8          17.2               180        3800
 6 Adelie  Biscoe           35.3          18.9               187        3800
 7 Adelie  Biscoe           40.6          18.6               183        3550
 8 Adelie  Biscoe           40.5          17.9               187        3200
 9 Adelie  Biscoe           37.9          18.6               172        3150
10 Adelie  Biscoe           40.5          18.9               180        3950
# ℹ 81 more rows
# ℹ 2 more variables: sex <fct>, year <int>
…
Figure 5.3: Schéma de la fonction select() tiré de la ‘cheatsheet’ de dplyr et tidyr.

Il n’est pas rare de travailler avec des tableaux contenant des centaines, voir des milliers de colonnes. Dans de tels cas, il peut être utile de réduire le jeu de données aux variables qui vous intéressent. Le rôle de la fonction select() est de retenir uniquement les colonnes dont on a spécifié le nom, afin de recentrer l’analyse sur les variables utiles.

select() n’est pas particulièrement utile pour le jeu de données penguins puisqu’il ne contient que 8 variables. Toutefois, on peut malgré tout ces données pour comprendre le fonctionnement général de select(). Ainsi, pour sélectionner uniquement les colonnes species, sex et body_mass_g, on tape :

# Sélection de variables par leur nom
penguins |>
  select(species, sex, body_mass_g)

# A tibble: 344 × 3
   species sex    body_mass_g
   <fct>   <fct>        <int>
 1 Adelie  male          3750
 2 Adelie  female        3800
 3 Adelie  female        3250
 4 Adelie  <NA>            NA
 5 Adelie  female        3450
 6 Adelie  male          3650
 7 Adelie  female        3625
 8 Adelie  male          4675
 9 Adelie  <NA>          3475
10 Adelie  <NA>          4250
# ℹ 334 more rows

Pour retenir des colonnes qui sont côte à côte dans le tableau de départ, on peut utiliser l’opérateur : pour les sélectionner :

# Sélection de toutes les variables entre `island` et `bill_depth_mm` (inclues)
penguins |>
  select(island:bill_depth_mm)

# A tibble: 344 × 3
   island    bill_length_mm bill_depth_mm
   <fct>              <dbl>         <dbl>
 1 Torgersen           39.1          18.7
 2 Torgersen           39.5          17.4
 3 Torgersen           40.3          18  
 4 Torgersen           NA            NA  
 5 Torgersen           36.7          19.3
 6 Torgersen           39.3          20.6
 7 Torgersen           38.9          17.8
 8 Torgersen           39.2          19.6
 9 Torgersen           34.1          18.1
10 Torgersen           42            20.2
# ℹ 334 more rows

À l’inverse, si on veut supprimer certaines colonnes, on peut utiliser la notation - :

# Sélection de toutes les variables de `penguins` à l'exception
# de celles comprises entre `island` et `bill_depth_mm` (inclues)
penguins |>
  select(-(island:bill_depth_mm))

# A tibble: 344 × 5
   species flipper_length_mm body_mass_g sex     year
   <fct>               <int>       <int> <fct>  <int>
 1 Adelie                181        3750 male    2007
 2 Adelie                186        3800 female  2007
 3 Adelie                195        3250 female  2007
 4 Adelie                 NA          NA <NA>    2007
 5 Adelie                193        3450 female  2007
 6 Adelie                190        3650 male    2007
 7 Adelie                181        3625 female  2007
 8 Adelie                195        4675 male    2007
 9 Adelie                193        3475 <NA>    2007
10 Adelie                190        4250 <NA>    2007
# ℹ 334 more rows
…
starts_with("abc") : renvoie toutes les variables dont les noms commencent par “abc”

ends_with("xyz") : renvoie toutes les variables dont les noms se terminent par “xyz”

contains("ijk") : renvoie toutes les variables dont les noms contiennent “ijk”

Il en existe beaucoup d’autres. Vous pouvez consulter l’aide de ?select() pour en savoir plus.

Ainsi, il est par exemple possible d’extraire toutes les variables contenant le mot “mm” ainsi :

penguins |>
  select(contains("mm"))

# A tibble: 344 × 3
   bill_length_mm bill_depth_mm flipper_length_mm
            <dbl>         <dbl>             <int>
 1           39.1          18.7               181
 2           39.5          17.4               186
 3           40.3          18                 195
 4           NA            NA                  NA
 5           36.7          19.3               193
 6           39.3          20.6               190
 7           38.9          17.8               181
 8           39.2          19.6               195
 9           34.1          18.1               193
10           42            20.2               190
# ℹ 334 more rows

Évidemment, le tableau penguins n’est pas modifié par cette opération : il contient toujours les 8 variables de départ. Pour travailler avec ces tableaux de données contenant moins de variables, il faut les stocker dans un nouvel objet en leur donnant un nom :

measures <- penguins |>
  select(contains("mm"))

Enfin, on peut utiliser select() pour renommer des variables. Mais ce n’est que rarement utile car select() élimine toutes les variables qui n’ont pas été explicitement nommées :

penguins |>
  select(species:island,
         b_length = bill_length_mm,
         flipper = flipper_length_mm)

# A tibble: 344 × 4
   species island    b_length flipper
   <fct>   <fct>        <dbl>   <int>
 1 Adelie  Torgersen     39.1     181
 2 Adelie  Torgersen     39.5     186
 3 Adelie  Torgersen     40.3     195
 4 Adelie  Torgersen     NA        NA
 5 Adelie  Torgersen     36.7     193
 6 Adelie  Torgersen     39.3     190
 7 Adelie  Torgersen     38.9     181
 8 Adelie  Torgersen     39.2     195
 9 Adelie  Torgersen     34.1     193
10 Adelie  Torgersen     42       190
# ℹ 334 more rows

Il est donc généralement préférable d’utiliser rename() pour renommer certaines variables sans en éliminer aucune :

penguins |>
  rename(b_length = bill_length_mm,
         flipper = flipper_length_mm)

# A tibble: 344 × 8
   species island    b_length bill_depth_mm flipper body_mass_g sex     year
   <fct>   <fct>        <dbl>         <dbl>   <int>       <int> <fct>  <int>
 1 Adelie  Torgersen     39.1          18.7     181        3750 male    2007
 2 Adelie  Torgersen     39.5          17.4     186        3800 female  2007
 3 Adelie  Torgersen     40.3          18       195        3250 female  2007
 4 Adelie  Torgersen     NA            NA        NA          NA <NA>    2007
 5 Adelie  Torgersen     36.7          19.3     193        3450 female  2007
 6 Adelie  Torgersen     39.3          20.6     190        3650 male    2007
 7 Adelie  Torgersen     38.9          17.8     181        3625 female  2007
 8 Adelie  Torgersen     39.2          19.6     195        4675 male    2007
 9 Adelie  Torgersen     34.1          18.1     193        3475 <NA>    2007
10 Adelie  Torgersen     42            20.2     190        4250 <NA>    2007
# ℹ 334 more rows
…
Figure 5.4: Schéma de la fonction mutate() tiré de la ‘cheatsheet’ de dplyr et tidyr.

La fonction mutate() permet de créer de nouvelles variables à partir des variables existantes, ou de modifier des variables déjà présentes dans un jeu de données. Il est en effet fréquent d’avoir besoin de calculer de nouvelles variables, souvent plus informatives que les variables disponibles.

Voyons un exemple. À partir de penguins, nous allons calculer une nouvelle variable et en modifier une autre :

ratio : le rapport entre la longueur du bec et son épaisseur. Cela nous donnera un indice de la compacité du bec. Des valeurs faibles de ce ratio indiqueront un bec très trapu, alors que des valeurs fortes indiqueront un bec très effilé

mass_kg : la masse, qui est ici exprimée en grammes sera transformée en kilogrammes par une simple division par 1000

penguins |>
  mutate(ratio = bill_length_mm / bill_depth_mm,
         mass_kg = body_mass_g / 1000)

# A tibble: 344 × 10
   species island    bill_length_mm bill_depth_mm flipper_length_mm body_mass_g
   <fct>   <fct>              <dbl>         <dbl>             <int>       <int>
 1 Adelie  Torgersen           39.1          18.7               181        3750
 2 Adelie  Torgersen           39.5          17.4               186        3800
 3 Adelie  Torgersen           40.3          18                 195        3250
 4 Adelie  Torgersen           NA            NA                  NA          NA
 5 Adelie  Torgersen           36.7          19.3               193        3450
 6 Adelie  Torgersen           39.3          20.6               190        3650
 7 Adelie  Torgersen           38.9          17.8               181        3625
 8 Adelie  Torgersen           39.2          19.6               195        4675
 9 Adelie  Torgersen           34.1          18.1               193        3475
10 Adelie  Torgersen           42            20.2               190        4250
# ℹ 334 more rows
# ℹ 4 more variables: sex <fct>, year <int>, ratio <dbl>, mass_kg <dbl>

Si on ne souhaite conserver que les variables nouvellement créées par mutate() et éliminer toutes les autres, on peut utiliser transmute() :

penguins |>
  transmute(ratio = bill_length_mm / bill_depth_mm,
            mass_kg = body_mass_g / 1000)

# A tibble: 344 × 2
   ratio mass_kg
   <dbl>   <dbl>
 1  2.09    3.75
 2  2.27    3.8 
 3  2.24    3.25
 4 NA      NA   
 5  1.90    3.45
 6  1.91    3.65
 7  2.19    3.62
 8  2       4.68
 9  1.88    3.48
10  2.08    4.25
# ℹ 334 more rows

Et comme toujours, pour pouvoir réutiliser ces données, on leur donne un nom :

pengu_ratio <-  penguins |>
  transmute(ratio = bill_length_mm / bill_depth_mm,
            mass_kg = body_mass_g / 1000)

5.6.2 Transformer des variables en facteurs

Il n’est pas rare que les tableaux de données que nous importons contiennent des colonnes numériques ou de chaînes de caractères qui devraient en réalité être reconnues en tant que facteurs. La fonction mutate() nous permet de changer rapidement le type d’une variable afin qu’elle soit reconnue comme un facteur. Plusieurs variables du tableau dauphin, importé plus tôt, devrait être transformées en facteur :

dauphin

# A tibble: 93 × 9
   ID        Sexe  Statut Taille   Age     Cd    Cu    Hg Organe
   <chr>     <chr> <chr>   <dbl> <dbl>  <dbl> <dbl> <dbl> <chr> 
 1 Numéro 1  f     imm       315     3  29.6   3.24 NA    rein  
 2 Numéro 2  f     imm       357     4  55.1   4.42 NA    rein  
 3 Numéro 3  f     pnl       439    34 129.    5.01  9.02 rein  
 4 Numéro 4  f     imm       316     4  71.2   4.33 NA    rein  
 5 Numéro 5  f     l         435    26 192     5.15 NA    rein  
 6 Numéro 6  f     pnl       388     6  NA     4.12  4.53 rein  
 7 Numéro 7  f     mat       410    NA  76     5.1  33.9  foie  
 8 Numéro 8  m     imm       355    NA  74.4   4.72 13.3  foie  
 9 Numéro 9  m     imm       222    NA   0.09  9.5   2.89 foie  
10 Numéro 10 m     imm       412     9  85.6   5.42 NA    rein  
# ℹ 83 more rows

C’est le cas des variables Sexe, Statut et Organe. Par ailleurs, la variable ID pourrait être supprimée puisqu’elle n’apporte aucune information est est parfaitement redondante avec les numéros de ligne du tableau. Voyons comment réaliser toutes ces actions :

dauphin_clean <- dauphin |> 
  select(-ID) |>                 # Suppression de la colonne ID, puis
  mutate(Sexe = factor(Sexe),     # Transformation de Sexe en facteur
         Organe = factor(Organe), # Transformation d'Organe en facteur
         Statut = factor(Statut,  # Transformation de Statut en facteur
                         levels = c("imm", "mat", "pnl", "pl", "l", "repos")))

L’objet dauphin_clean contient les résultats de nos manipulations :

dauphin_clean

# A tibble: 93 × 8
   Sexe  Statut Taille   Age     Cd    Cu    Hg Organe
   <fct> <fct>   <dbl> <dbl>  <dbl> <dbl> <dbl> <fct> 
 1 f     imm       315     3  29.6   3.24 NA    rein  
 2 f     imm       357     4  55.1   4.42 NA    rein  
 3 f     pnl       439    34 129.    5.01  9.02 rein  
 4 f     imm       316     4  71.2   4.33 NA    rein  
 5 f     l         435    26 192     5.15 NA    rein  
 6 f     pnl       388     6  NA     4.12  4.53 rein  
 7 f     mat       410    NA  76     5.1  33.9  foie  
 8 m     imm       355    NA  74.4   4.72 13.3  foie  
 9 m     imm       222    NA   0.09  9.5   2.89 foie  
10 m     imm       412     9  85.6   5.42 NA    rein  
# ℹ 83 more rows
…
Figure 5.7: La même figure mais avec les modalités des 2 facteurs inversées avec fct_rev()

Il conviendrait ici de changer les légendes de l’axe des x et de l’échelle de couleurs avec la fonction labs() (voir ?sec-labels).

Il existe de nombreuses autres fonctions très utiles dans le package forcats. L’une d’entre elles est la fonction fct_recode(), qui permet de changer le nom des modalités d’un facteur. Par exemple :

dauphin |> 
  mutate(Sexe = fct_recode(Sexe, 
                           "Femelle" = "f",
                           "Mâle" = "m"))

# A tibble: 93 × 9
   ID        Sexe    Statut Taille   Age     Cd    Cu    Hg Organe
   <chr>     <fct>   <chr>   <dbl> <dbl>  <dbl> <dbl> <dbl> <chr> 
 1 Numéro 1  Femelle imm       315     3  29.6   3.24 NA    rein  
 2 Numéro 2  Femelle imm       357     4  55.1   4.42 NA    rein  
 3 Numéro 3  Femelle pnl       439    34 129.    5.01  9.02 rein  
 4 Numéro 4  Femelle imm       316     4  71.2   4.33 NA    rein  
 5 Numéro 5  Femelle l         435    26 192     5.15 NA    rein  
 6 Numéro 6  Femelle pnl       388     6  NA     4.12  4.53 rein  
 7 Numéro 7  Femelle mat       410    NA  76     5.1  33.9  foie  
 8 Numéro 8  Mâle    imm       355    NA  74.4   4.72 13.3  foie  
 9 Numéro 9  Mâle    imm       222    NA   0.09  9.5   2.89 foie  
10 Numéro 10 Mâle    imm       412     9  85.6   5.42 NA    rein  
# ℹ 83 more rows
…
Figure 5.8: La même figure mais avec les modalités plus claires pour le facteur Sexe

Enfin, il existe une autre façon de procéder lorsque toutes les variables <chr> d’un tableau doivent être transformées en facteur. mutate_if() permet en effet d’appliquer la même fonction à toutes les variables respectant une condition précise. Ici, toutes les colonnes possédant le type <chr> seront transformées en facteur. Nous pouvons donc taper ceci :

dauphin |> 
  mutate_if(is.character, as.factor)

# A tibble: 93 × 9
   ID        Sexe  Statut Taille   Age     Cd    Cu    Hg Organe
   <fct>     <fct> <fct>   <dbl> <dbl>  <dbl> <dbl> <dbl> <fct> 
 1 Numéro 1  f     imm       315     3  29.6   3.24 NA    rein  
 2 Numéro 2  f     imm       357     4  55.1   4.42 NA    rein  
 3 Numéro 3  f     pnl       439    34 129.    5.01  9.02 rein  
 4 Numéro 4  f     imm       316     4  71.2   4.33 NA    rein  
 5 Numéro 5  f     l         435    26 192     5.15 NA    rein  
 6 Numéro 6  f     pnl       388     6  NA     4.12  4.53 rein  
 7 Numéro 7  f     mat       410    NA  76     5.1  33.9  foie  
 8 Numéro 8  m     imm       355    NA  74.4   4.72 13.3  foie  
 9 Numéro 9  m     imm       222    NA   0.09  9.5   2.89 foie  
10 Numéro 10 m     imm       412     9  85.6   5.42 NA    rein  
# ℹ 83 more rows
…
dauphin

# A tibble: 93 × 8
   Sexe   Statut Taille   Age     Cd    Cu    Hg Organe
   <fct>  <fct>   <dbl> <dbl>  <dbl> <dbl> <dbl> <fct> 
 1 Female imm       315     3  29.6   3.24 NA    rein  
 2 Female imm       357     4  55.1   4.42 NA    rein  
 3 Female pnl       439    34 129.    5.01  9.02 rein  
 4 Female imm       316     4  71.2   4.33 NA    rein  
 5 Female l         435    26 192     5.15 NA    rein  
 6 Female pnl       388     6  NA     4.12  4.53 rein  
 7 Female mat       410    NA  76     5.1  33.9  foie  
 8 Male   imm       355    NA  74.4   4.72 13.3  foie  
 9 Male   imm       222    NA   0.09  9.5   2.89 foie  
10 Male   imm       412     9  85.6   5.42 NA    rein  
# ℹ 83 more rows
…
