Analyse de Données - 6 Exploration statistique des données
…
reframe() : pour créer des résumés de données plus élaborés à partir des colonnes d’un tableau

count() : pour compter le nombre d’observations pour chaque niveau d’un facteur (ou modalité d’une variable catégorielle)

group_by() : pour effectuer des opérations pour chaque niveau d’un facteur (ou modalité d’une variable catégorielle)

Cette dernière fonction group_by() a été rendue presque obsolète par une mise à jour récente du package dplyr qui introduit un nouvel argument pour plusieurs fonctions, dont summarise() : l’argument .by. Un peu comme group-by(), ce nouvel argument permet d’effectuer des opérations pour chaque niveau d’un facteur (ou modalité d’une variable catégorielle). À notre niveau, les différences entre la fonction group_by() et l’argument .by ne sont pas importantes. Nous utiliserons donc de préférence la notation la plus simple, celle de l’argument .by.

Voyons comment on utilise ces fonctions pour calculer des indices de statistiques descriptives pour les variables du tableau penguins :

# affichage du tableau
penguins

# A tibble: 344 × 8
   species island    bill_length_mm bill_depth_mm flipper_length_mm body_mass_g
   <fct>   <fct>              <dbl>         <dbl>             <int>       <int>
 1 Adelie  Torgersen           39.1          18.7               181        3750
 2 Adelie  Torgersen           39.5          17.4               186        3800
 3 Adelie  Torgersen           40.3          18                 195        3250
 4 Adelie  Torgersen           NA            NA                  NA          NA
 5 Adelie  Torgersen           36.7          19.3               193        3450
 6 Adelie  Torgersen           39.3          20.6               190        3650
 7 Adelie  Torgersen           38.9          17.8               181        3625
 8 Adelie  Torgersen           39.2          19.6               195        4675
 9 Adelie  Torgersen           34.1          18.1               193        3475
10 Adelie  Torgersen           42            20.2               190        4250
# ℹ 334 more rows
# ℹ 2 more variables: sex <fct>, year <int>
…
Examinez le tableau weather du package nycflights13 et lisez son fichier d’aide pour comprendre à quoi correspondent les données et comment elles ont été acquises.

À partir du tableau weather faites un tableau indiquant les vitesses de vents minimales, maximales et moyennes, enregistrées chaque mois dans chaque aéroport de New York. Indice : les 3 aéroports de New York sont Newark, LaGuardia Airport et John F. Kennedy, notés respectivement EWR, LGA et JFK dans la variable origin. Votre tableau devrait ressembler à ceci :

# A tibble: 36 × 5
   origin month max_wind min_wind moy_wind
   <chr>  <int>    <dbl>    <dbl>    <dbl>
 1 EWR        1     42.6        0     9.87
 2 EWR        2   1048.         0    12.2 
 3 EWR        3     29.9        0    11.6 
 4 EWR        4     25.3        0     9.63
 5 EWR        5     33.4        0     8.49
 6 EWR        6     34.5        0     9.55
 7 EWR        7     20.7        0     9.15
 8 EWR        8     21.9        0     7.62
 9 EWR        9     23.0        0     8.03
10 EWR       10     26.5        0     8.32
# ℹ 26 more rows

Sachant que les vitesses du vent sont exprimées en miles par heure, certaines valeurs sont-elles surprenantes ? À l’aide de la fonction filter(), éliminez la ou les valeurs aberrantes. Vous devriez obtenir ce tableau :

# A tibble: 36 × 5
   origin month max_wind min_wind moy_wind
   <chr>  <int>    <dbl>    <dbl>    <dbl>
 1 EWR        1     42.6        0     9.87
 2 EWR        2     31.1        0    10.7 
 3 EWR        3     29.9        0    11.6 
 4 EWR        4     25.3        0     9.63
 5 EWR        5     33.4        0     8.49
 6 EWR        6     34.5        0     9.55
 7 EWR        7     20.7        0     9.15
 8 EWR        8     21.9        0     7.62
 9 EWR        9     23.0        0     8.03
10 EWR       10     26.5        0     8.32
# ℹ 26 more rows
…
