Analyse de Données - 9 Comparaison de la moyenne d’une population à une valeur théorique
…
À retenir !

Avant de se lancer dans les tests d’hypothèses, il est toujours indispensable d’examiner les données dont on dispose à l’aide, d’une part de statistiques descriptives numériques, et d’autres part, de graphiques exploratoires.

Nous avons vu dans les chapitres 6 et 7 quels indices statistiques il peut être utile de calculer, et dans les chapitres 3 et 8 quelles représentations graphiques il peut être utile de réaliser, afin de pouvoir se lancer dans des tests d’hypothèses sans risquer de grossières erreurs. N’hésitez pas à cliquer sur ces liens pour vous rafraîchir la mémoire !

9.3 Importation et mise en forme des données

Nous allons travailler ici sur les données contenues dans le fichier Temperature.csv. Téléchargez ces données dans votre répertoire de travail (attention : ne les ouvrez pas avec Excel, les données pourraient s’en trouver modifiées !), puis importez les données dans RStudio grâce à l’assistant d’importation. Si vous ne savez plus comment faire, consultez la Section 4.4.3.

Vous stockerez les données dans un objet que vous nommerez Temperature. Après l’importation, tapez son nom dans la console de RStudio et vérifiez que vous obtenez bien exactement ce résultat :

Temperature

# A tibble: 25 × 2
   individual temperature
        <dbl>       <dbl>
 1          1        98.4
 2          2        98.6
 3          3        97.8
 4          4        98.8
 5          5        97.9
 6          6        99  
 7          7        98.2
 8          8        98.8
 9          9        98.8
10         10        99  
# ℹ 15 more rows
…
la première colonne, intitulée individual, n’est pas véritablement une variable. Cette colonne ne contient qu’un identifiant sans intérêt pour notre étude et est en fait identique au numéro de ligne. Nous allons donc supprimer cette colonne.

les températures sont exprimées en degrés Fahrenheit, ce qui rend leur lecture difficile pour nous qui sommes habitués à utiliser le système métrique et les degrés Celsius. Grâce à la fonction mutate() décrite à la Section 5.6, nous allons donc convertir les températures en degrés Celsius grâce à la formule que nous avons déjà vue dans les chapitres précédents :

\[ºC = \frac{ºF - 32}{1.8}\]

Temp_clean <- Temperature |>
  select(-individual) |>      # Suppression de la colonne `individual`
  mutate(                     # Transformation des températures en ºCelsius
    temperature = (temperature - 32) / 1.8
    )

Temp_clean

# A tibble: 25 × 1
   temperature
         <dbl>
 1        36.9
 2        37  
 3        36.6
 4        37.1
 5        36.6
 6        37.2
 7        36.8
 8        37.1
 9        37.1
10        37.2
# ℹ 15 more rows
…
