Analyse de Données - 10 Comparaison de moyennes : deux échantillons appariés
…
l’entête de ces 2 colonnes devrait constituer une nouvelle variable que nous nommerons Moment

le contenu de ces 2 colonnes (les valeurs numériques) devrait constituer une nouvelle variable que nous nommerons DO (pour densité optique).

Pour effectuer cette transformation, nous utiliserons la fonction pivot_longer() du package tidyr (il est déjà chargé en mémoire si vous avez chargé le tidyverse). Comme son nom l’indique, cette fonction produira un tableau plus “long” (qui aura plus de lignes) que le tableau de départ. Nous l’appellerons donc Testo_long :

Testo_long <- Testo_large %>%
  pivot_longer(cols = c(Before, After),   # Les colonnes qu'on veut réorganiser
               names_to = "Moment",   # Quel nom donner à la variable qui contiendra les noms des anciennes colonnes
               values_to = "DO") %>%      # Quel nom donner à la variable qui contiendra le contenu des anciennes colonnes
  mutate(Moment = factor(Moment, levels = c("Before", "After")))

Testo_long

# A tibble: 26 × 3
   ID    Moment    DO
   <fct> <fct>  <dbl>
 1 1     Before  4.65
 2 1     After   4.44
 3 2     Before  3.91
 4 2     After   4.3 
 5 3     Before  4.91
 6 3     After   4.98
 7 4     Before  4.5 
 8 4     After   4.45
 9 5     Before  4.8 
10 5     After   5   
# ℹ 16 more rows
…
