Analyse de Données - 11 Comparaison de moyennes : deux échantillons indépendants
…
(c) Pie grièche

Figure 11.1: Le lézard cornu et son prédateur

Nous disposons donc de 2 groupes indépendants : chaque lézard n’a fourni qu’une valeur de longueur de cornes, et chaque lézard n’appartient qu’à un groupe, vivant ou mort. Nous sommes donc dans la situation typique de la comparaison de moyennes de 2 populations avec des données indépendantes. Avant de procéder aux tests, et comme toujours, nous allons commencer par importer et mettre en forme les données (si besoin), puis nous devrons explorer les données, à l’aide d’une part d’indices statistiques de position, de dispersion et d’incertitude et d’autre part de représentations graphiques pertinentes. Enfin, nous vérifierons les conditions d’application du test paramétrique de Student avant de réaliser ce test si les conditions d’application sont remplies, ou son équivalent non paramétrique si elles ne le sont pas.

11.3 Importation et mise en forme des données

Les données de cette étude sont stockées dans le fichier HornedLizards.csv. Importez ces données dans un objet nommé Lizard_raw et examinez le tableau obtenu.

Lizard_raw

# A tibble: 185 × 2
   squamosalHornLength Survival
                 <dbl> <chr>   
 1                25.2 living  
 2                26.9 living  
 3                26.6 living  
 4                25.6 living  
 5                25.7 living  
 6                25.9 living  
 7                27.3 living  
 8                25.1 living  
 9                30.3 living  
10                25.6 living  
# ℹ 175 more rows
…
le nom de la première colonne (squamosalHornLength), qui contient les mesures des longueurs de cornes, est bien trop long.

pour l’un des lézards vivants, la mesure de longueur des cornes est manquante. Nous allons donc retirer cet individu pour éviter les messages d’erreurs par la suite.

Nous pouvons facilement réaliser les 3 modifications d’un coup, et stokcer le résultat dans un nouveau tableau Lizard :

Lizard <- Lizard_raw %>%
  mutate(Survival = factor(Survival)) %>%
  rename(Horn_len = squamosalHornLength) %>%
  filter(!is.na(Horn_len))

Lizard

# A tibble: 184 × 2
   Horn_len Survival
      <dbl> <fct>   
 1     25.2 living  
 2     26.9 living  
 3     26.6 living  
 4     25.6 living  
 5     25.7 living  
 6     25.9 living  
 7     27.3 living  
 8     25.1 living  
 9     30.3 living  
10     25.6 living  
# ℹ 174 more rows
…
