Analyse de Données - 13 Corrélation
…
Dans la suite de ce chapitre, nous allons voir comment calculer le coefficient de corrélation entre 2 variables numériques1, et puisque nous travaillons avec des échantillons, ce calcul sera nécessairement entaché d’incertitude. Tout comme la moyenne ou la variance d’un échantillon, la corrélation est un paramètre des populations dont nous ne pourrons qu’estimer la valeur. Toute estimation de corrélation devra donc être encadrée par un intervalle d’incertitude, généralement, il s’agit de l’intervalle de confiance à 95% de la corrélation. Enfin, outre l’estimation de la valeur de la corrélation et de son incertitude, nous pourrons aussi faire des tests d’hypothèses au sujet des corrélations que nous estimerons. En particulier, nous pourrons tester si la corrélation observée est significativement différente de zéro ou non.
1 Vous aurez compris je pense qu’un calcul de corrélation n’a de sens que si l’on dispose de 2 variables numériques, enregistrées sur les mêmes individus ou unités d’étude. Voir détails à la fin de la Section 13.4

13.3 Contexte

Les adultes qui infligent des mauvais traitements à leurs enfants ont souvent été maltraités dans leur enfance. Une telle relation existe-t-elle également chez d’autres espèces animales, chez qui cette relation pourrait être étudiée plus facilement ? Müller et al. (2011) ont étudié cette possibilité chez le fou de Grant (Sula granti), un oiseau marin colonial vivant entre autres aux Galápagos. Les jeunes laissés au nid sans attention parentale reçoivent fréquemment la visite d’autres oiseaux, qui se comportent souvent de manière agressive à leur encontre. Les chercheurs ont compté le nombre de ces visites dans le nid de 24 poussins dotés d’une bague d’identification individuelle. Ces 24 individus ont ensuite été suivis à l’âge adulte, lorsqu’ils sont à leur tour devenus parents. On cherche donc à savoir s’il existe un lien entre le nombre de visites agressives qu’un individu à reçu lorsqu’il était à l’état de poussin, et un degré d’agressivité mesuré à l’âge adulte.

13.4 Importation et mise en forme des données

Les données récoltées par les chercheurs figurent dans le fichier birds.csv. Importez ces données dans RStudio dans un objet noté birds.

birds

# A tibble: 24 × 2
   nVisitsNestling futureBehavior
             <dbl>          <dbl>
 1               1          -0.8 
 2               7          -0.92
 3              15          -0.8 
 4               4          -0.46
 5              11          -0.47
 6              14          -0.46
 7              23          -0.23
 8              14          -0.16
 9               9          -0.23
10               5          -0.23
# ℹ 14 more rows

La première colonne de ce tableau indique, pour chaque individu suivi, le nombre de visites reçues au nid de la part d’adultes agressifs lorsqu’ils étaient poussins. La seconde colonne indique, pour ces mêmes individus devenus adultes, le nombre de visites agressives effectuées à des nids d’autres poussins. Ce nombre n’est pas dans la même unité que la première variable car il a été corrigé par d’autres variables d’intérêt pour les chercheurs.

Il manque à ce tableau une variable indiquant le code des individus. Elle n’est pas indispensable, mais la rajouter est une bonne habitude à prendre pour toujours travailler avec des “données rangées”. Puisqu’on dispose de 24 individus, on leur assigne donc un code de 1 à 24 :

birds <- birds %>%
  mutate(ID = factor(1:24))
birds

# A tibble: 24 × 3
   nVisitsNestling futureBehavior ID   
             <dbl>          <dbl> <fct>
 1               1          -0.8  1    
 2               7          -0.92 2    
 3              15          -0.8  3    
 4               4          -0.46 4    
 5              11          -0.47 5    
 6              14          -0.46 6    
 7              23          -0.23 7    
 8              14          -0.16 8    
 9               9          -0.23 9    
10               5          -0.23 10   
# ℹ 14 more rows
…
