Analyse de Données - 14 Régression linéaire
…
Les activités humaines réduisent le nombre d’espèces dans un grand nombre d’écosystèmes à la surface du globe. Est-ce que cette diminution du nombre d’espèces affecte le fonctionnement de base des écosystèmes ? Où est-ce qu’au contraire, les espèces végétales sont majoritairement interchangeables, les fonctions écologique des espèces disparues1 pouvant être assurées par les espèces toujours présentes ?

1 par exemple, la production d’O\(_2\) et la fixation de CO\(_2\), la dépollution des sols, leur fixation, la protection contre les inondations et l’érosion…

Pour tenter de répondre à cette question, Tilman, Reich, et Knops (2006) ont ensemencé 161 parcelles de 9 mètres sur 9 mètres dans la réserve de Cedar Creek (Minesota, USA). Ils ont utilisé un nombre variable d’espèces typiques des prairies et ont mesuré la production de biomasse de chaque parcelle pendant 10 ans. Des lots de 1, 2, 4, 8 ou 16 plantes pluriannuelles (choisies au hasard parmi une liste de 18 espèces possibles) ont été assignés au hasard dans chacune des 161 parcelles. À l’issue des 10 années d’étude, les chercheurs ont mesuré un indice de stabilité de la biomasse en divisant la moyenne des biomasses sur 10 ans, par l’écart-type de ces mêmes biomasses.

14.4 Importation et mise en forme des données

Les données de cette expérience sont disponibles dans le fichier plantbiomass.csv.

Comme toujours, on importe les données et on commence par un examen visuel afin de détecter les éventuels problèmes et pour savoir où l’on va.

plant

# A tibble: 161 × 2
   nSpecies biomassStability
      <dbl>            <dbl>
 1        1             2.01
 2        1             1.91
 3        1             1.89
 4        1             1.86
 5        1             1.74
 6        1             1.66
 7        1             1.57
 8        1             1.48
 9        1             1.48
10        1             1.45
# ℹ 151 more rows
…
